EXP5/ProjetoP1/simulation/qsim/JogoReacao_v1.msim.vcd
$comment
	File created using the following command:
		vcd file JogoReacao_v1.msim.vcd -direction
$end
$date
	Tue Feb  4 00:20:26 2020
$end
$version
	ModelSim Version 10.5b
$end
$timescale
	1ps
$end

$scope module jogoreacao_v1_vhd_vec_tst $end
$var wire 1 ! clock $end
$var wire 1 " db_estado [3] $end
$var wire 1 # db_estado [2] $end
$var wire 1 $ db_estado [1] $end
$var wire 1 % db_estado [0] $end
$var wire 1 & db_PInter $end
$var wire 1 ' db_PMed $end
$var wire 1 ( erro $end
$var wire 1 ) estimulo $end
$var wire 1 * jogar $end
$var wire 1 + ligado $end
$var wire 1 , pronto $end
$var wire 1 - pulso $end
$var wire 1 . reset $end
$var wire 1 / resposta $end
$var wire 1 0 tempo [15] $end
$var wire 1 1 tempo [14] $end
$var wire 1 2 tempo [13] $end
$var wire 1 3 tempo [12] $end
$var wire 1 4 tempo [11] $end
$var wire 1 5 tempo [10] $end
$var wire 1 6 tempo [9] $end
$var wire 1 7 tempo [8] $end
$var wire 1 8 tempo [7] $end
$var wire 1 9 tempo [6] $end
$var wire 1 : tempo [5] $end
$var wire 1 ; tempo [4] $end
$var wire 1 < tempo [3] $end
$var wire 1 = tempo [2] $end
$var wire 1 > tempo [1] $end
$var wire 1 ? tempo [0] $end

$scope module i1 $end
$var wire 1 @ gnd $end
$var wire 1 A vcc $end
$var wire 1 B unknown $end
$var wire 1 C devoe $end
$var wire 1 D devclrn $end
$var wire 1 E devpor $end
$var wire 1 F ww_devoe $end
$var wire 1 G ww_devclrn $end
$var wire 1 H ww_devpor $end
$var wire 1 I ww_jogar $end
$var wire 1 J ww_resposta $end
$var wire 1 K ww_reset $end
$var wire 1 L ww_clock $end
$var wire 1 M ww_ligado $end
$var wire 1 N ww_pulso $end
$var wire 1 O ww_estimulo $end
$var wire 1 P ww_erro $end
$var wire 1 Q ww_pronto $end
$var wire 1 R ww_tempo [15] $end
$var wire 1 S ww_tempo [14] $end
$var wire 1 T ww_tempo [13] $end
$var wire 1 U ww_tempo [12] $end
$var wire 1 V ww_tempo [11] $end
$var wire 1 W ww_tempo [10] $end
$var wire 1 X ww_tempo [9] $end
$var wire 1 Y ww_tempo [8] $end
$var wire 1 Z ww_tempo [7] $end
$var wire 1 [ ww_tempo [6] $end
$var wire 1 \ ww_tempo [5] $end
$var wire 1 ] ww_tempo [4] $end
$var wire 1 ^ ww_tempo [3] $end
$var wire 1 _ ww_tempo [2] $end
$var wire 1 ` ww_tempo [1] $end
$var wire 1 a ww_tempo [0] $end
$var wire 1 b ww_db_PInter $end
$var wire 1 c ww_db_PMed $end
$var wire 1 d ww_db_estado [3] $end
$var wire 1 e ww_db_estado [2] $end
$var wire 1 f ww_db_estado [1] $end
$var wire 1 g ww_db_estado [0] $end
$var wire 1 h \~QUARTUS_CREATED_GND~I_combout\ $end
$var wire 1 i \clock~input_o\ $end
$var wire 1 j \clock~inputCLKENA0_outclk\ $end
$var wire 1 k \reset~input_o\ $end
$var wire 1 l \CONTROLADOR|Eatual.LIGA~q\ $end
$var wire 1 m \resposta~input_o\ $end
$var wire 1 n \INTERFACE|LATCH|iq~combout\ $end
$var wire 1 o \jogar~input_o\ $end
$var wire 1 p \CONTROLADOR|Eatual.JOGOPRONTO~q\ $end
$var wire 1 q \CONTROLADOR|Selector0~0_combout\ $end
$var wire 1 r \CONTROLADOR|Eatual.INICIAL~q\ $end
$var wire 1 s \CONTROLADOR|Eprox.LIGA1~0_combout\ $end
$var wire 1 t \CONTROLADOR|Eatual.LIGA1~q\ $end
$var wire 1 u \INTERFACE|CONT_INICIO|IQ[0]~3_combout\ $end
$var wire 1 v \INTERFACE|FSM|Ereg.INICIAL~0_combout\ $end
$var wire 1 w \INTERFACE|FSM|Ereg.INICIAL~q\ $end
$var wire 1 x \INTERFACE|FSM|Eprox~1_combout\ $end
$var wire 1 y \INTERFACE|FSM|Selector0~0_combout\ $end
$var wire 1 z \INTERFACE|FSM|Ereg.CONTANDO~q\ $end
$var wire 1 { \INTERFACE|CONT_INICIO|IQ~0_combout\ $end
$var wire 1 | \INTERFACE|CONT_INICIO|IQ[3]~DUPLICATE_q\ $end
$var wire 1 } \INTERFACE|CONT_INICIO|IQ~2_combout\ $end
$var wire 1 ~ \INTERFACE|CONT_INICIO|IQ[2]~1_combout\ $end
$var wire 1 !! \INTERFACE|CONT_INICIO|Equal0~0_combout\ $end
$var wire 1 "! \INTERFACE|FSM|Selector2~0_combout\ $end
$var wire 1 #! \INTERFACE|FSM|Ereg.ESTIMULO~q\ $end
$var wire 1 $! \MEDIDOR|UC|Ereg.ESPERA~q\ $end
$var wire 1 %! \MEDIDOR|UC|Selector2~1_combout\ $end
$var wire 1 &! \MEDIDOR|UC|Ereg.CONTA~q\ $end
$var wire 1 '! \MEDIDOR|UC|Eprox.FIM~0_combout\ $end
$var wire 1 (! \MEDIDOR|UC|Ereg.FIM~q\ $end
$var wire 1 )! \MEDIDOR|UC|Selector3~0_combout\ $end
$var wire 1 *! \MEDIDOR|UC|Ereg.ESPERA~DUPLICATE_q\ $end
$var wire 1 +! \MEDIDOR|UC|Selector0~0_combout\ $end
$var wire 1 ,! \MEDIDOR|UC|Ereg.INICIAL~q\ $end
$var wire 1 -! \MEDIDOR|UC|Selector1~0_combout\ $end
$var wire 1 .! \MEDIDOR|UC|Ereg.LIGADO~q\ $end
$var wire 1 /! \MEDIDOR|CONT|CONT3|IQ~0_combout\ $end
$var wire 1 0! \MEDIDOR|CONT|CONT2|IQ~0_combout\ $end
$var wire 1 1! \MEDIDOR|CONT|CONT1|IQ~0_combout\ $end
$var wire 1 2! \MEDIDOR|CONT|CONT1|IQ[0]~1_combout\ $end
$var wire 1 3! \MEDIDOR|CONT|CONT1|IQ[1]~DUPLICATE_q\ $end
$var wire 1 4! \MEDIDOR|CONT|CONT1|IQ~3_combout\ $end
$var wire 1 5! \MEDIDOR|CONT|CONT1|IQ[3]~DUPLICATE_q\ $end
$var wire 1 6! \MEDIDOR|CONT|CONT1|IQ~2_combout\ $end
$var wire 1 7! \MEDIDOR|CONT|CONT1|IQ[2]~DUPLICATE_q\ $end
$var wire 1 8! \MEDIDOR|CONT|CONT1|IQ~4_combout\ $end
$var wire 1 9! \MEDIDOR|CONT|CONT1|Equal0~0_combout\ $end
$var wire 1 :! \MEDIDOR|CONT|CONT2|IQ[3]~1_combout\ $end
$var wire 1 ;! \MEDIDOR|CONT|CONT2|IQ[0]~DUPLICATE_q\ $end
$var wire 1 <! \MEDIDOR|CONT|CONT2|IQ~3_combout\ $end
$var wire 1 =! \MEDIDOR|CONT|CONT2|IQ[2]~DUPLICATE_q\ $end
$var wire 1 >! \MEDIDOR|CONT|CONT2|IQ~2_combout\ $end
$var wire 1 ?! \MEDIDOR|CONT|CONT2|IQ~4_combout\ $end
$var wire 1 @! \MEDIDOR|CONT|CONT2|IQ[1]~DUPLICATE_q\ $end
$var wire 1 A! \MEDIDOR|CONT|CONT2|Equal0~0_combout\ $end
$var wire 1 B! \MEDIDOR|CONT|CONT3|IQ[3]~1_combout\ $end
$var wire 1 C! \MEDIDOR|CONT|CONT3|IQ[0]~DUPLICATE_q\ $end
$var wire 1 D! \MEDIDOR|CONT|CONT3|IQ~2_combout\ $end
$var wire 1 E! \MEDIDOR|CONT|CONT3|IQ~3_combout\ $end
$var wire 1 F! \MEDIDOR|CONT|CONT3|IQ[1]~DUPLICATE_q\ $end
$var wire 1 G! \MEDIDOR|CONT|CONT3|IQ~4_combout\ $end
$var wire 1 H! \MEDIDOR|CONT|CONT3|IQ[3]~DUPLICATE_q\ $end
$var wire 1 I! \MEDIDOR|CONT|CONT3|Equal0~0_combout\ $end
$var wire 1 J! \MEDIDOR|CONT|CONT4|IQ~0_combout\ $end
$var wire 1 K! \MEDIDOR|CONT|CONT4|IQ[3]~1_combout\ $end
$var wire 1 L! \MEDIDOR|CONT|CONT4|IQ[1]~DUPLICATE_q\ $end
$var wire 1 M! \MEDIDOR|CONT|CONT4|IQ[2]~DUPLICATE_q\ $end
$var wire 1 N! \MEDIDOR|CONT|CONT4|IQ~4_combout\ $end
$var wire 1 O! \MEDIDOR|CONT|CONT4|IQ~2_combout\ $end
$var wire 1 P! \MEDIDOR|CONT|CONT4|IQ~3_combout\ $end
$var wire 1 Q! \MEDIDOR|CONT|CONT4|Equal0~0_combout\ $end
$var wire 1 R! \CONTROLADOR|Eprox.JOGOPRONTO~0_combout\ $end
$var wire 1 S! \CONTROLADOR|Eatual.JOGOPRONTO~DUPLICATE_q\ $end
$var wire 1 T! \reset_in2~combout\ $end
$var wire 1 U! \INTERFACE|FSM|Ereg.FIM~q\ $end
$var wire 1 V! \INTERFACE|FSM|Eprox.ESPERA~0_combout\ $end
$var wire 1 W! \INTERFACE|FSM|Ereg.ESPERA~q\ $end
$var wire 1 X! \INTERFACE|FSM|Selector3~0_combout\ $end
$var wire 1 Y! \INTERFACE|FSM|Ereg.FIM~DUPLICATE_q\ $end
$var wire 1 Z! \INTERFACE|FSM|Ereg.ERRO~0_combout\ $end
$var wire 1 [! \INTERFACE|FSM|Ereg.ERRO~q\ $end
$var wire 1 \! \CONTROLADOR|Selector1~0_combout\ $end
$var wire 1 ]! \MEDIDOR|CONT|CONT4|rco~0_combout\ $end
$var wire 1 ^! \CONTROLADOR|Selector1~1_combout\ $end
$var wire 1 _! \CONTROLADOR|Eatual.LIGA~DUPLICATE_q\ $end
$var wire 1 `! \MEDIDOR|UC|Selector2~0_combout\ $end
$var wire 1 a! \CONTROLADOR|Eatual.ERRO~DUPLICATE_q\ $end
$var wire 1 b! \CONTROLADOR|Eatual.ERRO~0_combout\ $end
$var wire 1 c! \CONTROLADOR|Eatual.ERRO~1_combout\ $end
$var wire 1 d! \CONTROLADOR|Eatual.ERRO~q\ $end
$var wire 1 e! \MEDIDOR|REG|IQ[13]~0_combout\ $end
$var wire 1 f! \MUX|Selector15~0_combout\ $end
$var wire 1 g! \MUX|Selector14~0_combout\ $end
$var wire 1 h! \MUX|Selector13~0_combout\ $end
$var wire 1 i! \MEDIDOR|REG|IQ[3]~feeder_combout\ $end
$var wire 1 j! \MUX|Selector12~0_combout\ $end
$var wire 1 k! \MEDIDOR|REG|IQ[4]~feeder_combout\ $end
$var wire 1 l! \MUX|Selector11~0_combout\ $end
$var wire 1 m! \MUX|Selector10~0_combout\ $end
$var wire 1 n! \MUX|Selector9~0_combout\ $end
$var wire 1 o! \MEDIDOR|CONT|CONT2|IQ[3]~DUPLICATE_q\ $end
$var wire 1 p! \MUX|Selector8~0_combout\ $end
$var wire 1 q! \MUX|Selector7~0_combout\ $end
$var wire 1 r! \MEDIDOR|REG|IQ[9]~feeder_combout\ $end
$var wire 1 s! \MUX|Selector6~0_combout\ $end
$var wire 1 t! \MUX|Selector5~0_combout\ $end
$var wire 1 u! \MUX|Selector4~0_combout\ $end
$var wire 1 v! \MUX|Selector3~0_combout\ $end
$var wire 1 w! \MUX|Selector2~0_combout\ $end
$var wire 1 x! \MEDIDOR|REG|IQ[14]~feeder_combout\ $end
$var wire 1 y! \MUX|Selector1~0_combout\ $end
$var wire 1 z! \MEDIDOR|CONT|CONT4|IQ[3]~DUPLICATE_q\ $end
$var wire 1 {! \MUX|Selector0~0_combout\ $end
$var wire 1 |! \CONTROLADOR|WideOr4~combout\ $end
$var wire 1 }! \CONTROLADOR|WideOr3~0_combout\ $end
$var wire 1 ~! \INTERFACE|CONT_INICIO|IQ\ [3] $end
$var wire 1 !" \INTERFACE|CONT_INICIO|IQ\ [2] $end
$var wire 1 "" \INTERFACE|CONT_INICIO|IQ\ [1] $end
$var wire 1 #" \INTERFACE|CONT_INICIO|IQ\ [0] $end
$var wire 1 $" \MEDIDOR|CONT|CONT4|IQ\ [3] $end
$var wire 1 %" \MEDIDOR|CONT|CONT4|IQ\ [2] $end
$var wire 1 &" \MEDIDOR|CONT|CONT4|IQ\ [1] $end
$var wire 1 '" \MEDIDOR|CONT|CONT4|IQ\ [0] $end
$var wire 1 (" \MEDIDOR|CONT|CONT2|IQ\ [3] $end
$var wire 1 )" \MEDIDOR|CONT|CONT2|IQ\ [2] $end
$var wire 1 *" \MEDIDOR|CONT|CONT2|IQ\ [1] $end
$var wire 1 +" \MEDIDOR|CONT|CONT2|IQ\ [0] $end
$var wire 1 ," \MEDIDOR|CONT|CONT3|IQ\ [3] $end
$var wire 1 -" \MEDIDOR|CONT|CONT3|IQ\ [2] $end
$var wire 1 ." \MEDIDOR|CONT|CONT3|IQ\ [1] $end
$var wire 1 /" \MEDIDOR|CONT|CONT3|IQ\ [0] $end
$var wire 1 0" \MEDIDOR|CONT|CONT1|IQ\ [3] $end
$var wire 1 1" \MEDIDOR|CONT|CONT1|IQ\ [2] $end
$var wire 1 2" \MEDIDOR|CONT|CONT1|IQ\ [1] $end
$var wire 1 3" \MEDIDOR|CONT|CONT1|IQ\ [0] $end
$var wire 1 4" \CONTROLADOR|estado\ [3] $end
$var wire 1 5" \CONTROLADOR|estado\ [2] $end
$var wire 1 6" \CONTROLADOR|estado\ [1] $end
$var wire 1 7" \CONTROLADOR|estado\ [0] $end
$var wire 1 8" \MEDIDOR|REG|IQ\ [15] $end
$var wire 1 9" \MEDIDOR|REG|IQ\ [14] $end
$var wire 1 :" \MEDIDOR|REG|IQ\ [13] $end
$var wire 1 ;" \MEDIDOR|REG|IQ\ [12] $end
$var wire 1 <" \MEDIDOR|REG|IQ\ [11] $end
$var wire 1 =" \MEDIDOR|REG|IQ\ [10] $end
$var wire 1 >" \MEDIDOR|REG|IQ\ [9] $end
$var wire 1 ?" \MEDIDOR|REG|IQ\ [8] $end
$var wire 1 @" \MEDIDOR|REG|IQ\ [7] $end
$var wire 1 A" \MEDIDOR|REG|IQ\ [6] $end
$var wire 1 B" \MEDIDOR|REG|IQ\ [5] $end
$var wire 1 C" \MEDIDOR|REG|IQ\ [4] $end
$var wire 1 D" \MEDIDOR|REG|IQ\ [3] $end
$var wire 1 E" \MEDIDOR|REG|IQ\ [2] $end
$var wire 1 F" \MEDIDOR|REG|IQ\ [1] $end
$var wire 1 G" \MEDIDOR|REG|IQ\ [0] $end
$var wire 1 H" \MEDIDOR|UC|ALT_INV_Ereg.ESPERA~DUPLICATE_q\ $end
$var wire 1 I" \INTERFACE|CONT_INICIO|ALT_INV_IQ[3]~DUPLICATE_q\ $end
$var wire 1 J" \MEDIDOR|CONT|CONT3|ALT_INV_IQ[3]~DUPLICATE_q\ $end
$var wire 1 K" \MEDIDOR|CONT|CONT3|ALT_INV_IQ[1]~DUPLICATE_q\ $end
$var wire 1 L" \MEDIDOR|CONT|CONT3|ALT_INV_IQ[0]~DUPLICATE_q\ $end
$var wire 1 M" \MEDIDOR|CONT|CONT4|ALT_INV_IQ[2]~DUPLICATE_q\ $end
$var wire 1 N" \MEDIDOR|CONT|CONT4|ALT_INV_IQ[1]~DUPLICATE_q\ $end
$var wire 1 O" \MEDIDOR|CONT|CONT2|ALT_INV_IQ[2]~DUPLICATE_q\ $end
$var wire 1 P" \MEDIDOR|CONT|CONT2|ALT_INV_IQ[1]~DUPLICATE_q\ $end
$var wire 1 Q" \MEDIDOR|CONT|CONT2|ALT_INV_IQ[0]~DUPLICATE_q\ $end
$var wire 1 R" \MEDIDOR|CONT|CONT1|ALT_INV_IQ[3]~DUPLICATE_q\ $end
$var wire 1 S" \MEDIDOR|CONT|CONT1|ALT_INV_IQ[2]~DUPLICATE_q\ $end
$var wire 1 T" \MEDIDOR|CONT|CONT1|ALT_INV_IQ[1]~DUPLICATE_q\ $end
$var wire 1 U" \INTERFACE|FSM|ALT_INV_Ereg.FIM~DUPLICATE_q\ $end
$var wire 1 V" \CONTROLADOR|ALT_INV_Eatual.JOGOPRONTO~DUPLICATE_q\ $end
$var wire 1 W" \CONTROLADOR|ALT_INV_Eatual.ERRO~DUPLICATE_q\ $end
$var wire 1 X" \CONTROLADOR|ALT_INV_Eatual.LIGA~DUPLICATE_q\ $end
$var wire 1 Y" \ALT_INV_jogar~input_o\ $end
$var wire 1 Z" \ALT_INV_resposta~input_o\ $end
$var wire 1 [" \ALT_INV_reset~input_o\ $end
$var wire 1 \" \INTERFACE|LATCH|ALT_INV_iq~combout\ $end
$var wire 1 ]" \MEDIDOR|UC|ALT_INV_Ereg.INICIAL~q\ $end
$var wire 1 ^" \INTERFACE|FSM|ALT_INV_Eprox~1_combout\ $end
$var wire 1 _" \INTERFACE|FSM|ALT_INV_Ereg.INICIAL~q\ $end
$var wire 1 `" \MEDIDOR|UC|ALT_INV_Ereg.ESPERA~q\ $end
$var wire 1 a" \MEDIDOR|UC|ALT_INV_Ereg.CONTA~q\ $end
$var wire 1 b" \INTERFACE|FSM|ALT_INV_Ereg.ESPERA~q\ $end
$var wire 1 c" \MEDIDOR|UC|ALT_INV_Ereg.LIGADO~q\ $end
$var wire 1 d" \CONTROLADOR|ALT_INV_Eatual.ERRO~0_combout\ $end
$var wire 1 e" \INTERFACE|CONT_INICIO|ALT_INV_Equal0~0_combout\ $end
$var wire 1 f" \INTERFACE|CONT_INICIO|ALT_INV_IQ\ [3] $end
$var wire 1 g" \INTERFACE|CONT_INICIO|ALT_INV_IQ\ [2] $end
$var wire 1 h" \INTERFACE|CONT_INICIO|ALT_INV_IQ\ [1] $end
$var wire 1 i" \INTERFACE|CONT_INICIO|ALT_INV_IQ\ [0] $end
$var wire 1 j" \INTERFACE|FSM|ALT_INV_Ereg.CONTANDO~q\ $end
$var wire 1 k" \ALT_INV_reset_in2~combout\ $end
$var wire 1 l" \MEDIDOR|CONT|CONT4|ALT_INV_rco~0_combout\ $end
$var wire 1 m" \MEDIDOR|CONT|CONT3|ALT_INV_Equal0~0_combout\ $end
$var wire 1 n" \MEDIDOR|CONT|CONT3|ALT_INV_IQ\ [3] $end
$var wire 1 o" \MEDIDOR|CONT|CONT3|ALT_INV_IQ\ [2] $end
$var wire 1 p" \MEDIDOR|CONT|CONT3|ALT_INV_IQ\ [1] $end
$var wire 1 q" \MEDIDOR|CONT|CONT3|ALT_INV_IQ\ [0] $end
$var wire 1 r" \MEDIDOR|CONT|CONT4|ALT_INV_Equal0~0_combout\ $end
$var wire 1 s" \MEDIDOR|CONT|CONT4|ALT_INV_IQ\ [3] $end
$var wire 1 t" \MEDIDOR|CONT|CONT4|ALT_INV_IQ\ [2] $end
$var wire 1 u" \MEDIDOR|CONT|CONT4|ALT_INV_IQ\ [1] $end
$var wire 1 v" \MEDIDOR|CONT|CONT4|ALT_INV_IQ\ [0] $end
$var wire 1 w" \MEDIDOR|CONT|CONT2|ALT_INV_Equal0~0_combout\ $end
$var wire 1 x" \MEDIDOR|CONT|CONT2|ALT_INV_IQ\ [3] $end
$var wire 1 y" \MEDIDOR|CONT|CONT2|ALT_INV_IQ\ [2] $end
$var wire 1 z" \MEDIDOR|CONT|CONT2|ALT_INV_IQ\ [1] $end
$var wire 1 {" \MEDIDOR|CONT|CONT2|ALT_INV_IQ\ [0] $end
$var wire 1 |" \MEDIDOR|CONT|CONT1|ALT_INV_Equal0~0_combout\ $end
$var wire 1 }" \MEDIDOR|CONT|CONT1|ALT_INV_IQ\ [3] $end
$var wire 1 ~" \MEDIDOR|CONT|CONT1|ALT_INV_IQ\ [2] $end
$var wire 1 !# \MEDIDOR|CONT|CONT1|ALT_INV_IQ\ [1] $end
$var wire 1 "# \MEDIDOR|CONT|CONT1|ALT_INV_IQ\ [0] $end
$var wire 1 ## \CONTROLADOR|ALT_INV_Eatual.LIGA1~q\ $end
$var wire 1 $# \CONTROLADOR|ALT_INV_WideOr4~combout\ $end
$var wire 1 %# \CONTROLADOR|ALT_INV_Eatual.INICIAL~q\ $end
$var wire 1 &# \MEDIDOR|UC|ALT_INV_Ereg.FIM~q\ $end
$var wire 1 '# \CONTROLADOR|ALT_INV_Selector1~0_combout\ $end
$var wire 1 (# \INTERFACE|FSM|ALT_INV_Ereg.FIM~q\ $end
$var wire 1 )# \INTERFACE|FSM|ALT_INV_Ereg.ERRO~q\ $end
$var wire 1 *# \CONTROLADOR|ALT_INV_Eatual.JOGOPRONTO~q\ $end
$var wire 1 +# \CONTROLADOR|ALT_INV_Eatual.ERRO~q\ $end
$var wire 1 ,# \INTERFACE|FSM|ALT_INV_Ereg.ESTIMULO~q\ $end
$var wire 1 -# \CONTROLADOR|ALT_INV_Eatual.LIGA~q\ $end
$var wire 1 .# \MEDIDOR|REG|ALT_INV_IQ\ [15] $end
$var wire 1 /# \MEDIDOR|REG|ALT_INV_IQ\ [14] $end
$var wire 1 0# \MEDIDOR|REG|ALT_INV_IQ\ [13] $end
$var wire 1 1# \MEDIDOR|REG|ALT_INV_IQ\ [12] $end
$var wire 1 2# \MEDIDOR|REG|ALT_INV_IQ\ [11] $end
$var wire 1 3# \MEDIDOR|REG|ALT_INV_IQ\ [10] $end
$var wire 1 4# \MEDIDOR|REG|ALT_INV_IQ\ [9] $end
$var wire 1 5# \MEDIDOR|REG|ALT_INV_IQ\ [8] $end
$var wire 1 6# \MEDIDOR|REG|ALT_INV_IQ\ [7] $end
$var wire 1 7# \MEDIDOR|REG|ALT_INV_IQ\ [6] $end
$var wire 1 8# \MEDIDOR|REG|ALT_INV_IQ\ [5] $end
$var wire 1 9# \MEDIDOR|REG|ALT_INV_IQ\ [4] $end
$var wire 1 :# \MEDIDOR|REG|ALT_INV_IQ\ [3] $end
$var wire 1 ;# \MEDIDOR|REG|ALT_INV_IQ\ [2] $end
$var wire 1 <# \MEDIDOR|REG|ALT_INV_IQ\ [1] $end
$var wire 1 =# \MEDIDOR|REG|ALT_INV_IQ\ [0] $end
$upscope $end
$upscope $end
$enddefinitions $end
#0
$dumpvars
0!
0&
0'
0(
0)
0*
0+
0,
0-
1.
0/
0@
1A
xB
1C
1D
1E
1F
1G
1H
0I
0J
1K
0L
0M
0N
0O
0P
0Q
0b
0c
xh
0i
0j
1k
0l
0m
0n
0o
0p
0q
0r
0s
0t
1u
0v
0w
1x
0y
0z
0{
0|
0}
0~
0!!
0"!
0#!
0$!
0%!
0&!
0'!
0(!
0)!
0*!
0+!
0,!
0-!
0.!
1/!
10!
11!
02!
03!
04!
05!
06!
07!
08!
09!
0:!
0;!
0<!
0=!
0>!
0?!
0@!
0A!
0B!
0C!
0D!
0E!
0F!
0G!
0H!
0I!
1J!
0K!
0L!
0M!
0N!
0O!
0P!
0Q!
0R!
0S!
1T!
0U!
0V!
0W!
0X!
0Y!
0Z!
0[!
1\!
0]!
0^!
0_!
0`!
0a!
1b!
0c!
0d!
0e!
0f!
0g!
0h!
0i!
0j!
0k!
0l!
0m!
0n!
0o!
0p!
0q!
0r!
0s!
0t!
0u!
0v!
0w!
0x!
0y!
0z!
0{!
1|!
0}!
1H"
1I"
1J"
1K"
1L"
1M"
1N"
1O"
1P"
1Q"
1R"
1S"
1T"
1U"
1V"
1W"
1X"
1Y"
1Z"
0["
1\"
1]"
0^"
1_"
1`"
1a"
1b"
1c"
0d"
1e"
1j"
0k"
1l"
1m"
1r"
1w"
1|"
1##
0$#
1%#
1&#
0'#
1(#
1)#
1*#
1+#
1,#
1-#
00
01
02
03
04
05
06
07
08
09
0:
0;
0<
0=
0>
0?
0"
0#
0$
0%
0R
0S
0T
0U
0V
0W
0X
0Y
0Z
0[
0\
0]
0^
0_
0`
0a
0d
0e
0f
0g
0~!
0!"
0""
0#"
0$"
0%"
0&"
0'"
0("
0)"
0*"
0+"
0,"
0-"
0."
0/"
00"
01"
02"
03"
x4"
x5"
06"
x7"
08"
09"
0:"
0;"
0<"
0="
0>"
0?"
0@"
0A"
0B"
0C"
0D"
0E"
0F"
0G"
1f"
1g"
1h"
1i"
1n"
1o"
1p"
1q"
1s"
1t"
1u"
1v"
1x"
1y"
1z"
1{"
1}"
1~"
1!#
1"#
1.#
1/#
10#
11#
12#
13#
14#
15#
16#
17#
18#
19#
1:#
1;#
1<#
1=#
$end
#10000
1!
1L
1i
1j
#20000
0!
0.
1*
0L
0K
1I
1o
0k
0i
0j
1["
0Y"
1q
1s
0T!
1k"
#30000
1!
1L
1i
1j
1r
1t
0##
0%#
0s
0|!
1+!
1-!
1^!
16"
1$#
1f
1g
1$
1%
#40000
0!
0*
0L
0I
0o
0i
0j
1Y"
#50000
1!
1L
1i
1j
1l
0t
1,!
1.!
1_!
0X"
0c"
0]"
1##
0-#
1v
1y
06"
0/!
00!
01!
12!
1:!
1B!
0J!
1K!
1e!
1M
1+
0f
0$
#60000
0!
0L
0i
0j
#70000
1!
1L
1i
1j
1w
1z
0j"
0_"
0x
1^"
#80000
0!
0L
0i
0j
#90000
1!
1L
1i
1j
1#"
0i"
0u
1}
#100000
0!
0L
0i
0j
#110000
1!
1L
1i
1j
0#"
1""
0h"
1i"
1u
#120000
0!
0L
0i
0j
#130000
1!
1L
1i
1j
1#"
0i"
0u
0}
1~
#140000
0!
0L
0i
0j
#150000
1!
1L
1i
1j
0#"
0""
1!"
0g"
1h"
1i"
1u
#160000
0!
0L
0i
0j
#170000
1!
1L
1i
1j
1#"
0i"
0u
1}
#180000
0!
0L
0i
0j
#190000
1!
1/
1L
1J
1m
1i
1j
0Z"
1n
0y
1Z!
0#"
1""
0h"
1i"
0\"
1u
#200000
0!
0L
0i
0j
#210000
1!
1L
1i
1j
0z
1#"
1[!
0)#
0i"
1j"
0u
1{
0}
0\!
0b!
1d"
1'#
0^!
1c!
1b
1&
#220000
0!
0L
0i
0j
#230000
1!
1L
1i
1j
0l
0_!
1a!
1d!
0+#
0W"
1X"
1-#
1|!
1}!
1f!
1j!
1l!
1p!
1q!
1u!
1v!
1{!
0$#
1P
0M
1(
0+
1R
1U
1V
1Y
1Z
1]
1^
1a
1d
0g
1?
1<
1;
18
17
14
13
10
1"
0%
#240000
0!
0L
0i
0j
#250000
1!
1L
1i
1j
#260000
0!
0L
0i
0j
#270000
1!
1L
1i
1j
#280000
0!
0L
0i
0j
#290000
1!
0/
1L
0J
0m
1i
1j
1Z"
#300000
0!
0L
0i
0j
#310000
1!
1L
1i
1j
#320000
0!
0L
0i
0j
#330000
1!
1L
1i
1j
#340000
0!
0L
0i
0j
#350000
1!
1L
1i
1j
#360000
0!
0L
0i
0j
#370000
1!
1L
1i
1j
#380000
0!
0L
0i
0j
#390000
1!
1L
1i
1j
#400000
0!
0L
0i
0j
#410000
1!
1L
1i
1j
#420000
0!
0L
0i
0j
#430000
1!
1L
1i
1j
#440000
0!
0L
0i
0j
#450000
1!
1L
1i
1j
#460000
0!
0L
0i
0j
#470000
1!
1L
1i
1j
#480000
0!
0L
0i
0j
#490000
1!
1L
1i
1j
#500000
0!
0L
0i
0j
#510000
1!
1L
1i
1j
#520000
0!
0L
0i
0j
#530000
1!
1L
1i
1j
#540000
0!
0L
0i
0j
#550000
1!
1L
1i
1j
#560000
0!
0L
0i
0j
#570000
1!
1L
1i
1j
#580000
0!
0L
0i
0j
#590000
1!
1L
1i
1j
#600000
0!
0L
0i
0j
#610000
1!
1L
1i
1j
#620000
0!
0L
0i
0j
#630000
1!
1L
1i
1j
#640000
0!
0L
0i
0j
#650000
1!
1L
1i
1j
#660000
0!
0L
0i
0j
#670000
1!
1L
1i
1j
#680000
0!
0L
0i
0j
#690000
1!
1L
1i
1j
#700000
0!
0L
0i
0j
#710000
1!
1L
1i
1j
#720000
0!
0L
0i
0j
#730000
1!
1L
1i
1j
#740000
0!
0L
0i
0j
#750000
1!
1L
1i
1j
#760000
0!
0L
0i
0j
#770000
1!
1L
1i
1j
#780000
0!
0L
0i
0j
#790000
1!
1L
1i
1j
#800000
0!
0L
0i
0j
#810000
1!
1L
1i
1j
#820000
0!
0L
0i
0j
#830000
1!
1L
1i
1j
#840000
0!
0L
0i
0j
#850000
1!
1L
1i
1j
#860000
0!
0L
0i
0j
#870000
1!
1L
1i
1j
#880000
0!
0L
0i
0j
#890000
1!
1L
1i
1j
#900000
0!
0L
0i
0j
#910000
1!
1L
1i
1j
#920000
0!
0L
0i
0j
#930000
1!
1L
1i
1j
#940000
0!
0L
0i
0j
#950000
1!
1L
1i
1j
#960000
0!
0L
0i
0j
#970000
1!
1L
1i
1j
#980000
0!
0L
0i
0j
#990000
1!
1L
1i
1j
