EXP2/Files/contador8bits_restored/simulation/qsim/contador8bits.msim.vcd
$comment
	File created using the following command:
		vcd file contador8bits.msim.vcd -direction
$end
$date
	Mon Jan 13 20:06:56 2020
$end
$version
	ModelSim Version 10.5b
$end
$timescale
	1ps
$end

$scope module contador8bits_vhd_vec_tst $end
$var wire 1 ! clock $end
$var wire 1 " conta $end
$var wire 1 # Q [7] $end
$var wire 1 $ Q [6] $end
$var wire 1 % Q [5] $end
$var wire 1 & Q [4] $end
$var wire 1 ' Q [3] $end
$var wire 1 ( Q [2] $end
$var wire 1 ) Q [1] $end
$var wire 1 * Q [0] $end
$var wire 1 + rco $end
$var wire 1 , zera $end

$scope module i1 $end
$var wire 1 - gnd $end
$var wire 1 . vcc $end
$var wire 1 / unknown $end
$var wire 1 0 devoe $end
$var wire 1 1 devclrn $end
$var wire 1 2 devpor $end
$var wire 1 3 ww_devoe $end
$var wire 1 4 ww_devclrn $end
$var wire 1 5 ww_devpor $end
$var wire 1 6 ww_clock $end
$var wire 1 7 ww_zera $end
$var wire 1 8 ww_conta $end
$var wire 1 9 ww_Q [7] $end
$var wire 1 : ww_Q [6] $end
$var wire 1 ; ww_Q [5] $end
$var wire 1 < ww_Q [4] $end
$var wire 1 = ww_Q [3] $end
$var wire 1 > ww_Q [2] $end
$var wire 1 ? ww_Q [1] $end
$var wire 1 @ ww_Q [0] $end
$var wire 1 A ww_rco $end
$var wire 1 B \~QUARTUS_CREATED_GND~I_combout\ $end
$var wire 1 C \clock~input_o\ $end
$var wire 1 D \clock~inputCLKENA0_outclk\ $end
$var wire 1 E \zera~input_o\ $end
$var wire 1 F \CONT1|IQ~0_combout\ $end
$var wire 1 G \conta~input_o\ $end
$var wire 1 H \CONT1|IQ[0]~1_combout\ $end
$var wire 1 I \CONT1|IQ~2_combout\ $end
$var wire 1 J \CONT1|IQ~3_combout\ $end
$var wire 1 K \CONT1|IQ~4_combout\ $end
$var wire 1 L \CONT2|IQ~0_combout\ $end
$var wire 1 M \CONT2|IQ[0]~1_combout\ $end
$var wire 1 N \CONT2|IQ~2_combout\ $end
$var wire 1 O \CONT2|IQ~3_combout\ $end
$var wire 1 P \CONT2|IQ~4_combout\ $end
$var wire 1 Q \CONT1|Equal0~0_combout\ $end
$var wire 1 R \CONT2|rco~combout\ $end
$var wire 1 S \CONT2|IQ\ [3] $end
$var wire 1 T \CONT2|IQ\ [2] $end
$var wire 1 U \CONT2|IQ\ [1] $end
$var wire 1 V \CONT2|IQ\ [0] $end
$var wire 1 W \CONT1|IQ\ [3] $end
$var wire 1 X \CONT1|IQ\ [2] $end
$var wire 1 Y \CONT1|IQ\ [1] $end
$var wire 1 Z \CONT1|IQ\ [0] $end
$var wire 1 [ \ALT_INV_conta~input_o\ $end
$var wire 1 \ \ALT_INV_zera~input_o\ $end
$var wire 1 ] \CONT1|ALT_INV_Equal0~0_combout\ $end
$var wire 1 ^ \CONT2|ALT_INV_IQ\ [3] $end
$var wire 1 _ \CONT2|ALT_INV_IQ\ [2] $end
$var wire 1 ` \CONT2|ALT_INV_IQ\ [1] $end
$var wire 1 a \CONT2|ALT_INV_IQ\ [0] $end
$var wire 1 b \CONT1|ALT_INV_IQ\ [3] $end
$var wire 1 c \CONT1|ALT_INV_IQ\ [2] $end
$var wire 1 d \CONT1|ALT_INV_IQ\ [1] $end
$var wire 1 e \CONT1|ALT_INV_IQ\ [0] $end
$upscope $end
$upscope $end
$enddefinitions $end
#0
$dumpvars
0!
1"
0+
0,
0-
1.
x/
10
11
12
13
14
15
06
07
18
0A
xB
0C
0D
0E
0F
1G
1H
0I
0J
0K
0L
1M
0N
0O
0P
0Q
0R
0[
1\
1]
09
0:
0;
0<
0=
0>
0?
0@
0S
0T
0U
0V
0W
0X
0Y
0Z
1^
1_
1`
1a
1b
1c
1d
1e
0#
0$
0%
0&
0'
0(
0)
0*
$end
#20000
1!
16
1C
1D
#40000
0!
06
0C
0D
#60000
1!
1,
16
17
1E
1C
1D
0\
1F
1L
0M
#80000
0!
06
0C
0D
#100000
1!
16
1C
1D
1Z
0e
0F
1I
1@
1*
#120000
0!
06
0C
0D
#140000
1!
16
1C
1D
0Z
1Y
0d
1e
1F
1?
0@
0*
1)
#160000
0!
06
0C
0D
#180000
1!
16
1C
1D
1Z
0e
0F
0I
1J
1@
1*
#200000
0!
06
0C
0D
#220000
1!
16
1C
1D
0Z
0Y
1X
0c
1d
1e
1F
1>
0?
0@
0*
0)
1(
#240000
0!
06
0C
0D
#260000
1!
16
1C
1D
1Z
0e
0F
1I
1@
1*
#280000
0!
06
0C
0D
#300000
1!
16
1C
1D
0Z
1Y
0d
1e
1F
1?
0@
0*
1)
#320000
0!
06
0C
0D
#340000
1!
16
1C
1D
1Z
0e
0F
0I
0J
1K
1@
1*
#360000
0!
06
0C
0D
#380000
1!
16
1C
1D
0Z
0Y
0X
1W
0b
1c
1d
1e
1F
1=
0>
0?
0@
0*
0)
0(
1'
#400000
0!
06
0C
0D
#420000
1!
16
1C
1D
1Z
0e
0F
1I
1@
1*
#440000
0!
06
0C
0D
#460000
1!
16
1C
1D
0Z
1Y
0d
1e
1F
1?
0@
0*
1)
#480000
0!
06
0C
0D
#500000
1!
16
1C
1D
1Z
0e
0F
0I
1J
1@
1*
#520000
0!
06
0C
0D
#540000
1!
16
1C
1D
0Z
0Y
1X
0c
1d
1e
1F
1>
0?
0@
0*
0)
1(
#560000
0!
06
0C
0D
#580000
1!
16
1C
1D
1Z
0e
0F
1I
1@
1*
#600000
0!
06
0C
0D
#620000
1!
16
1C
1D
0Z
1Y
0d
1e
1F
1?
0@
0*
1)
#640000
0!
06
0C
0D
#660000
1!
16
1C
1D
1Z
0e
0F
0I
0J
0K
1M
1Q
0]
1@
1*
#680000
0!
06
0C
0D
#700000
1!
0"
16
08
0G
1C
1D
1[
0H
0M
0Z
0Y
0X
0W
1V
0a
1b
1c
1d
1e
1F
0Q
0L
1N
1]
1<
0=
0>
0?
0@
0*
0)
0(
0'
1&
#720000
0!
06
0C
0D
#740000
1!
16
1C
1D
#760000
0!
06
0C
0D
#780000
1!
16
1C
1D
#800000
0!
06
0C
0D
#820000
1!
16
1C
1D
#840000
0!
0,
06
07
0E
0C
0D
1\
0F
1H
1M
0N
#860000
1!
16
1C
1D
0V
1a
0<
0&
#880000
0!
06
0C
0D
#900000
1!
1"
16
18
1G
1C
1D
0[
#920000
0!
06
0C
0D
#940000
1!
1,
16
17
1E
1C
1D
0\
1F
1L
0M
#960000
0!
06
0C
0D
#980000
1!
16
1C
1D
1Z
0e
0F
1I
1@
1*
#1000000
0!
06
0C
0D
#1020000
1!
16
1C
1D
0Z
1Y
0d
1e
1F
1?
0@
0*
1)
#1040000
0!
06
0C
0D
#1060000
1!
16
1C
1D
1Z
0e
0F
0I
1J
1@
1*
#1080000
0!
06
0C
0D
#1100000
1!
16
1C
1D
0Z
0Y
1X
0c
1d
1e
1F
1>
0?
0@
0*
0)
1(
#1120000
0!
06
0C
0D
#1140000
1!
16
1C
1D
1Z
0e
0F
1I
1@
1*
#1160000
0!
06
0C
0D
#1180000
1!
16
1C
1D
0Z
1Y
0d
1e
1F
1?
0@
0*
1)
#1200000
0!
06
0C
0D
#1220000
1!
16
1C
1D
1Z
0e
0F
0I
0J
1K
1@
1*
#1240000
0!
06
0C
0D
#1260000
1!
16
1C
1D
0Z
0Y
0X
1W
0b
1c
1d
1e
1F
1=
0>
0?
0@
0*
0)
0(
1'
#1280000
0!
06
0C
0D
#1300000
1!
16
1C
1D
1Z
0e
0F
1I
1@
1*
#1320000
0!
06
0C
0D
#1340000
1!
16
1C
1D
0Z
1Y
0d
1e
1F
1?
0@
0*
1)
#1360000
0!
06
0C
0D
#1380000
1!
16
1C
1D
1Z
0e
0F
0I
1J
1@
1*
#1400000
0!
06
0C
0D
#1420000
1!
16
1C
1D
0Z
0Y
1X
0c
1d
1e
1F
1>
0?
0@
0*
0)
1(
#1440000
0!
06
0C
0D
#1460000
1!
16
1C
1D
1Z
0e
0F
1I
1@
1*
#1480000
0!
06
0C
0D
#1500000
1!
16
1C
1D
0Z
1Y
0d
1e
1F
1?
0@
0*
1)
#1520000
0!
06
0C
0D
#1540000
1!
16
1C
1D
1Z
0e
0F
0I
0J
0K
1M
1Q
0]
1@
1*
#1560000
0!
06
0C
0D
#1580000
1!
16
1C
1D
0Z
0Y
0X
0W
1V
0a
1b
1c
1d
1e
1F
0M
0Q
0L
1N
1]
1<
0=
0>
0?
0@
0*
0)
0(
0'
1&
#1600000
0!
06
0C
0D
#1620000
1!
16
1C
1D
1Z
0e
0F
1I
1@
1*
#1640000
0!
06
0C
0D
#1660000
1!
16
1C
1D
0Z
1Y
0d
1e
1F
1?
0@
0*
1)
#1680000
0!
06
0C
0D
#1700000
1!
16
1C
1D
1Z
0e
0F
0I
1J
1@
1*
#1720000
0!
06
0C
0D
#1740000
1!
16
1C
1D
0Z
0Y
1X
0c
1d
1e
1F
1>
0?
0@
0*
0)
1(
#1760000
0!
06
0C
0D
#1780000
1!
16
1C
1D
1Z
0e
0F
1I
1@
1*
#1800000
0!
06
0C
0D
#1820000
1!
16
1C
1D
0Z
1Y
0d
1e
1F
1?
0@
0*
1)
#1840000
0!
06
0C
0D
#1860000
1!
16
1C
1D
1Z
0e
0F
0I
0J
1K
1@
1*
#1880000
0!
06
0C
0D
#1900000
1!
16
1C
1D
0Z
0Y
0X
1W
0b
1c
1d
1e
1F
1=
0>
0?
0@
0*
0)
0(
1'
#1920000
0!
06
0C
0D
#1940000
1!
16
1C
1D
1Z
0e
0F
1I
1@
1*
#1960000
0!
06
0C
0D
#1980000
1!
16
1C
1D
0Z
1Y
0d
1e
1F
1?
0@
0*
1)
#2000000
0!
06
0C
0D
#2020000
1!
16
1C
1D
1Z
0e
0F
0I
1J
1@
1*
#2040000
0!
06
0C
0D
#2060000
1!
16
1C
1D
0Z
0Y
1X
0c
1d
1e
1F
1>
0?
0@
0*
0)
1(
#2080000
0!
06
0C
0D
#2100000
1!
16
1C
1D
1Z
0e
0F
1I
1@
1*
#2120000
0!
06
0C
0D
#2140000
1!
16
1C
1D
0Z
1Y
0d
1e
1F
1?
0@
0*
1)
#2160000
0!
06
0C
0D
#2180000
1!
16
1C
1D
1Z
0e
0F
0I
0J
0K
1M
1Q
0]
1@
1*
#2200000
0!
06
0C
0D
#2220000
1!
16
1C
1D
0Z
0Y
0X
0W
0V
1U
0`
1a
1b
1c
1d
1e
1F
0M
0Q
1L
1]
1;
0<
0=
0>
0?
0@
0*
0)
0(
0'
0&
1%
#2240000
0!
06
0C
0D
#2260000
1!
16
1C
1D
1Z
0e
0F
1I
1@
1*
#2280000
0!
06
0C
0D
#2300000
1!
16
1C
1D
0Z
1Y
0d
1e
1F
1?
0@
0*
1)
#2320000
0!
06
0C
0D
#2340000
1!
16
1C
1D
1Z
0e
0F
0I
1J
1@
1*
#2360000
0!
06
0C
0D
#2380000
1!
16
1C
1D
0Z
0Y
1X
0c
1d
1e
1F
1>
0?
0@
0*
0)
1(
#2400000
0!
06
0C
0D
#2420000
1!
16
1C
1D
1Z
0e
0F
1I
1@
1*
#2440000
0!
06
0C
0D
#2460000
1!
16
1C
1D
0Z
1Y
0d
1e
1F
1?
0@
0*
1)
#2480000
0!
06
0C
0D
#2500000
1!
16
1C
1D
1Z
0e
0F
0I
0J
1K
1@
1*
#2520000
0!
06
0C
0D
#2540000
1!
16
1C
1D
0Z
0Y
0X
1W
0b
1c
1d
1e
1F
1=
0>
0?
0@
0*
0)
0(
1'
#2560000
0!
06
0C
0D
#2580000
1!
16
1C
1D
1Z
0e
0F
1I
1@
1*
#2600000
0!
06
0C
0D
#2620000
1!
16
1C
1D
0Z
1Y
0d
1e
1F
1?
0@
0*
1)
#2640000
0!
06
0C
0D
#2660000
1!
16
1C
1D
1Z
0e
0F
0I
1J
1@
1*
#2680000
0!
06
0C
0D
#2700000
1!
16
1C
1D
0Z
0Y
1X
0c
1d
1e
1F
1>
0?
0@
0*
0)
1(
#2720000
0!
06
0C
0D
#2740000
1!
16
1C
1D
1Z
0e
0F
1I
1@
1*
#2760000
0!
06
0C
0D
#2780000
1!
16
1C
1D
0Z
1Y
0d
1e
1F
1?
0@
0*
1)
#2800000
0!
06
0C
0D
#2820000
1!
16
1C
1D
1Z
0e
0F
0I
0J
0K
1M
1Q
0]
1@
1*
#2840000
0!
06
0C
0D
#2860000
1!
16
1C
1D
0Z
0Y
0X
0W
1V
0a
1b
1c
1d
1e
1F
0M
0Q
0L
0N
1O
1]
1<
0=
0>
0?
0@
0*
0)
0(
0'
1&
#2880000
0!
06
0C
0D
#2900000
1!
16
1C
1D
1Z
0e
0F
1I
1@
1*
#2920000
0!
06
0C
0D
#2940000
1!
16
1C
1D
0Z
1Y
0d
1e
1F
1?
0@
0*
1)
#2960000
0!
06
0C
0D
#2980000
1!
16
1C
1D
1Z
0e
0F
0I
1J
1@
1*
#3000000
0!
06
0C
0D
#3020000
1!
16
1C
1D
0Z
0Y
1X
0c
1d
1e
1F
1>
0?
0@
0*
0)
1(
#3040000
0!
06
0C
0D
#3060000
1!
16
1C
1D
1Z
0e
0F
1I
1@
1*
#3080000
0!
06
0C
0D
#3100000
1!
16
1C
1D
0Z
1Y
0d
1e
1F
1?
0@
0*
1)
#3120000
0!
06
0C
0D
#3140000
1!
16
1C
1D
1Z
0e
0F
0I
0J
1K
1@
1*
#3160000
0!
06
0C
0D
#3180000
1!
16
1C
1D
0Z
0Y
0X
1W
0b
1c
1d
1e
1F
1=
0>
0?
0@
0*
0)
0(
1'
#3200000
0!
06
0C
0D
#3220000
1!
16
1C
1D
1Z
0e
0F
1I
1@
1*
#3240000
0!
06
0C
0D
#3260000
1!
16
1C
1D
0Z
1Y
0d
1e
1F
1?
0@
0*
1)
#3280000
0!
06
0C
0D
#3300000
1!
16
1C
1D
1Z
0e
0F
0I
1J
1@
1*
#3320000
0!
06
0C
0D
#3340000
1!
16
1C
1D
0Z
0Y
1X
0c
1d
1e
1F
1>
0?
0@
0*
0)
1(
#3360000
0!
06
0C
0D
#3380000
1!
16
1C
1D
1Z
0e
0F
1I
1@
1*
#3400000
0!
06
0C
0D
#3420000
1!
16
1C
1D
0Z
1Y
0d
1e
1F
1?
0@
0*
1)
#3440000
0!
06
0C
0D
#3460000
1!
16
1C
1D
1Z
0e
0F
0I
0J
0K
1M
1Q
0]
1@
1*
#3480000
0!
06
0C
0D
#3500000
1!
16
1C
1D
0Z
0Y
0X
0W
0V
0U
1T
0_
1`
1a
1b
1c
1d
1e
1F
0M
0Q
1L
1]
1:
0;
0<
0=
0>
0?
0@
0*
0)
0(
0'
0&
0%
1$
#3520000
0!
06
0C
0D
#3540000
1!
16
1C
1D
1Z
0e
0F
1I
1@
1*
#3560000
0!
06
0C
0D
#3580000
1!
16
1C
1D
0Z
1Y
0d
1e
1F
1?
0@
0*
1)
#3600000
0!
06
0C
0D
#3620000
1!
16
1C
1D
1Z
0e
0F
0I
1J
1@
1*
#3640000
0!
06
0C
0D
#3660000
1!
16
1C
1D
0Z
0Y
1X
0c
1d
1e
1F
1>
0?
0@
0*
0)
1(
#3680000
0!
06
0C
0D
#3700000
1!
16
1C
1D
1Z
0e
0F
1I
1@
1*
#3720000
0!
06
0C
0D
#3740000
1!
16
1C
1D
0Z
1Y
0d
1e
1F
1?
0@
0*
1)
#3760000
0!
06
0C
0D
#3780000
1!
16
1C
1D
1Z
0e
0F
0I
0J
1K
1@
1*
#3800000
0!
06
0C
0D
#3820000
1!
16
1C
1D
0Z
0Y
0X
1W
0b
1c
1d
1e
1F
1=
0>
0?
0@
0*
0)
0(
1'
#3840000
0!
06
0C
0D
#3860000
1!
16
1C
1D
1Z
0e
0F
1I
1@
1*
#3880000
0!
06
0C
0D
#3900000
1!
16
1C
1D
0Z
1Y
0d
1e
1F
1?
0@
0*
1)
#3920000
0!
06
0C
0D
#3940000
1!
16
1C
1D
1Z
0e
0F
0I
1J
1@
1*
#3960000
0!
06
0C
0D
#3980000
1!
16
1C
1D
0Z
0Y
1X
0c
1d
1e
1F
1>
0?
0@
0*
0)
1(
#4000000
0!
06
0C
0D
#4020000
1!
16
1C
1D
1Z
0e
0F
1I
1@
1*
#4040000
0!
06
0C
0D
#4060000
1!
16
1C
1D
0Z
1Y
0d
1e
1F
1?
0@
0*
1)
#4080000
0!
06
0C
0D
#4100000
1!
16
1C
1D
1Z
0e
0F
0I
0J
0K
1M
1Q
0]
1@
1*
#4120000
0!
06
0C
0D
#4140000
1!
16
1C
1D
0Z
0Y
0X
0W
1V
0a
1b
1c
1d
1e
1F
0M
0Q
0L
1N
1]
1<
0=
0>
0?
0@
0*
0)
0(
0'
1&
#4160000
0!
06
0C
0D
#4180000
1!
16
1C
1D
1Z
0e
0F
1I
1@
1*
#4200000
0!
06
0C
0D
#4220000
1!
16
1C
1D
0Z
1Y
0d
1e
1F
1?
0@
0*
1)
#4240000
0!
06
0C
0D
#4260000
1!
16
1C
1D
1Z
0e
0F
0I
1J
1@
1*
#4280000
0!
06
0C
0D
#4300000
1!
16
1C
1D
0Z
0Y
1X
0c
1d
1e
1F
1>
0?
0@
0*
0)
1(
#4320000
0!
06
0C
0D
#4340000
1!
16
1C
1D
1Z
0e
0F
1I
1@
1*
#4360000
0!
06
0C
0D
#4380000
1!
16
1C
1D
0Z
1Y
0d
1e
1F
1?
0@
0*
1)
#4400000
0!
06
0C
0D
#4420000
1!
16
1C
1D
1Z
0e
0F
0I
0J
1K
1@
1*
#4440000
0!
06
0C
0D
#4460000
1!
16
1C
1D
0Z
0Y
0X
1W
0b
1c
1d
1e
1F
1=
0>
0?
0@
0*
0)
0(
1'
#4480000
0!
06
0C
0D
#4500000
1!
16
1C
1D
1Z
0e
0F
1I
1@
1*
#4520000
0!
06
0C
0D
#4540000
1!
16
1C
1D
0Z
1Y
0d
1e
1F
1?
0@
0*
1)
#4560000
0!
06
0C
0D
#4580000
1!
16
1C
1D
1Z
0e
0F
0I
1J
1@
1*
#4600000
0!
06
0C
0D
#4620000
1!
16
1C
1D
0Z
0Y
1X
0c
1d
1e
1F
1>
0?
0@
0*
0)
1(
#4640000
0!
06
0C
0D
#4660000
1!
16
1C
1D
1Z
0e
0F
1I
1@
1*
#4680000
0!
06
0C
0D
#4700000
1!
16
1C
1D
0Z
1Y
0d
1e
1F
1?
0@
0*
1)
#4720000
0!
06
0C
0D
#4740000
1!
16
1C
1D
1Z
0e
0F
0I
0J
0K
1M
1Q
0]
1@
1*
#4760000
0!
06
0C
0D
#4780000
1!
16
1C
1D
0Z
0Y
0X
0W
0V
1U
0`
1a
1b
1c
1d
1e
1F
0M
0Q
1L
1]
1;
0<
0=
0>
0?
0@
0*
0)
0(
0'
0&
1%
#4800000
0!
06
0C
0D
#4820000
1!
16
1C
1D
1Z
0e
0F
1I
1@
1*
#4840000
0!
06
0C
0D
#4860000
1!
16
1C
1D
0Z
1Y
0d
1e
1F
1?
0@
0*
1)
#4880000
0!
06
0C
0D
#4900000
1!
16
1C
1D
1Z
0e
0F
0I
1J
1@
1*
#4920000
0!
06
0C
0D
#4940000
1!
16
1C
1D
0Z
0Y
1X
0c
1d
1e
1F
1>
0?
0@
0*
0)
1(
#4960000
0!
06
0C
0D
#4980000
1!
16
1C
1D
1Z
0e
0F
1I
1@
1*
#5000000
0!
06
0C
0D
#5020000
1!
16
1C
1D
0Z
1Y
0d
1e
1F
1?
0@
0*
1)
#5040000
0!
06
0C
0D
#5060000
1!
16
1C
1D
1Z
0e
0F
0I
0J
1K
1@
1*
#5080000
0!
06
0C
0D
#5100000
1!
16
1C
1D
0Z
0Y
0X
1W
0b
1c
1d
1e
1F
1=
0>
0?
0@
0*
0)
0(
1'
#5120000
0!
06
0C
0D
#5140000
1!
16
1C
1D
1Z
0e
0F
1I
1@
1*
#5160000
0!
06
0C
0D
#5180000
1!
16
1C
1D
0Z
1Y
0d
1e
1F
1?
0@
0*
1)
#5200000
0!
06
0C
0D
#5220000
1!
16
1C
1D
1Z
0e
0F
0I
1J
1@
1*
#5240000
0!
06
0C
0D
#5260000
1!
16
1C
1D
0Z
0Y
1X
0c
1d
1e
1F
1>
0?
0@
0*
0)
1(
#5280000
0!
06
0C
0D
#5300000
1!
16
1C
1D
1Z
0e
0F
1I
1@
1*
#5320000
0!
06
0C
0D
#5340000
1!
16
1C
1D
0Z
1Y
0d
1e
1F
1?
0@
0*
1)
#5360000
0!
06
0C
0D
#5380000
1!
16
1C
1D
1Z
0e
0F
0I
0J
0K
1M
1Q
0]
1@
1*
#5400000
0!
06
0C
0D
#5420000
1!
16
1C
1D
0Z
0Y
0X
0W
1V
0a
1b
1c
1d
1e
1F
0M
0Q
0L
0N
0O
1P
1]
1<
0=
0>
0?
0@
0*
0)
0(
0'
1&
#5440000
0!
06
0C
0D
#5460000
1!
16
1C
1D
1Z
0e
0F
1I
1@
1*
#5480000
0!
06
0C
0D
#5500000
1!
16
1C
1D
0Z
1Y
0d
1e
1F
1?
0@
0*
1)
#5520000
0!
06
0C
0D
#5540000
1!
16
1C
1D
1Z
0e
0F
0I
1J
1@
1*
#5560000
0!
06
0C
0D
#5580000
1!
16
1C
1D
0Z
0Y
1X
0c
1d
1e
1F
1>
0?
0@
0*
0)
1(
#5600000
0!
06
0C
0D
#5620000
1!
16
1C
1D
1Z
0e
0F
1I
1@
1*
#5640000
0!
06
0C
0D
#5660000
1!
16
1C
1D
0Z
1Y
0d
1e
1F
1?
0@
0*
1)
#5680000
0!
06
0C
0D
#5700000
1!
16
1C
1D
1Z
0e
0F
0I
0J
1K
1@
1*
#5720000
0!
06
0C
0D
#5740000
1!
16
1C
1D
0Z
0Y
0X
1W
0b
1c
1d
1e
1F
1=
0>
0?
0@
0*
0)
0(
1'
#5760000
0!
06
0C
0D
#5780000
1!
16
1C
1D
1Z
0e
0F
1I
1@
1*
#5800000
0!
06
0C
0D
#5820000
1!
16
1C
1D
0Z
1Y
0d
1e
1F
1?
0@
0*
1)
#5840000
0!
06
0C
0D
#5860000
1!
16
1C
1D
1Z
0e
0F
0I
1J
1@
1*
#5880000
0!
06
0C
0D
#5900000
1!
16
1C
1D
0Z
0Y
1X
0c
1d
1e
1F
1>
0?
0@
0*
0)
1(
#5920000
0!
06
0C
0D
#5940000
1!
16
1C
1D
1Z
0e
0F
1I
1@
1*
#5960000
0!
06
0C
0D
#5980000
1!
16
1C
1D
0Z
1Y
0d
1e
1F
1?
0@
0*
1)
#6000000
0!
06
0C
0D
#6020000
1!
16
1C
1D
1Z
0e
0F
0I
0J
0K
1M
1Q
0]
1@
1*
#6040000
0!
06
0C
0D
#6060000
1!
16
1C
1D
0Z
0Y
0X
0W
0V
0U
0T
1S
0^
1_
1`
1a
1b
1c
1d
1e
1F
0M
0Q
1L
1]
19
0:
0;
0<
0=
0>
0?
0@
0*
0)
0(
0'
0&
0%
0$
1#
#6080000
0!
06
0C
0D
#6100000
1!
16
1C
1D
1Z
0e
0F
1I
1@
1*
#6120000
0!
06
0C
0D
#6140000
1!
16
1C
1D
0Z
1Y
0d
1e
1F
1?
0@
0*
1)
#6160000
0!
06
0C
0D
#6180000
1!
16
1C
1D
1Z
0e
0F
0I
1J
1@
1*
#6200000
0!
06
0C
0D
#6220000
1!
16
1C
1D
0Z
0Y
1X
0c
1d
1e
1F
1>
0?
0@
0*
0)
1(
#6240000
0!
06
0C
0D
#6260000
1!
16
1C
1D
1Z
0e
0F
1I
1@
1*
#6280000
0!
06
0C
0D
#6300000
1!
16
1C
1D
0Z
1Y
0d
1e
1F
1?
0@
0*
1)
#6320000
0!
06
0C
0D
#6340000
1!
16
1C
1D
1Z
0e
0F
0I
0J
1K
1@
1*
#6360000
0!
06
0C
0D
#6380000
1!
16
1C
1D
0Z
0Y
0X
1W
0b
1c
1d
1e
1F
1=
0>
0?
0@
0*
0)
0(
1'
#6400000
0!
06
0C
0D
#6420000
1!
16
1C
1D
1Z
0e
0F
1I
1@
1*
#6440000
0!
06
0C
0D
#6460000
1!
16
1C
1D
0Z
1Y
0d
1e
1F
1?
0@
0*
1)
#6480000
0!
06
0C
0D
#6500000
1!
16
1C
1D
1Z
0e
0F
0I
1J
1@
1*
#6520000
0!
06
0C
0D
#6540000
1!
16
1C
1D
0Z
0Y
1X
0c
1d
1e
1F
1>
0?
0@
0*
0)
1(
#6560000
0!
06
0C
0D
#6580000
1!
16
1C
1D
1Z
0e
0F
1I
1@
1*
#6600000
0!
06
0C
0D
#6620000
1!
16
1C
1D
0Z
1Y
0d
1e
1F
1?
0@
0*
1)
#6640000
0!
06
0C
0D
#6660000
1!
16
1C
1D
1Z
0e
0F
0I
0J
0K
1M
1Q
0]
1@
1*
#6680000
0!
06
0C
0D
#6700000
1!
16
1C
1D
0Z
0Y
0X
0W
1V
0a
1b
1c
1d
1e
1F
0M
0Q
0L
1N
1]
1<
0=
0>
0?
0@
0*
0)
0(
0'
1&
#6720000
0!
06
0C
0D
#6740000
1!
16
1C
1D
1Z
0e
0F
1I
1@
1*
#6760000
0!
06
0C
0D
#6780000
1!
16
1C
1D
0Z
1Y
0d
1e
1F
1?
0@
0*
1)
#6800000
0!
06
0C
0D
#6820000
1!
16
1C
1D
1Z
0e
0F
0I
1J
1@
1*
#6840000
0!
06
0C
0D
#6860000
1!
16
1C
1D
0Z
0Y
1X
0c
1d
1e
1F
1>
0?
0@
0*
0)
1(
#6880000
0!
06
0C
0D
#6900000
1!
16
1C
1D
1Z
0e
0F
1I
1@
1*
#6920000
0!
06
0C
0D
#6940000
1!
16
1C
1D
0Z
1Y
0d
1e
1F
1?
0@
0*
1)
#6960000
0!
06
0C
0D
#6980000
1!
16
1C
1D
1Z
0e
0F
0I
0J
1K
1@
1*
#7000000
0!
06
0C
0D
#7020000
1!
16
1C
1D
0Z
0Y
0X
1W
0b
1c
1d
1e
1F
1=
0>
0?
0@
0*
0)
0(
1'
#7040000
0!
06
0C
0D
#7060000
1!
16
1C
1D
1Z
0e
0F
1I
1@
1*
#7080000
0!
06
0C
0D
#7100000
1!
16
1C
1D
0Z
1Y
0d
1e
1F
1?
0@
0*
1)
#7120000
0!
06
0C
0D
#7140000
1!
16
1C
1D
1Z
0e
0F
0I
1J
1@
1*
#7160000
0!
06
0C
0D
#7180000
1!
16
1C
1D
0Z
0Y
1X
0c
1d
1e
1F
1>
0?
0@
0*
0)
1(
#7200000
0!
06
0C
0D
#7220000
1!
16
1C
1D
1Z
0e
0F
1I
1@
1*
#7240000
0!
06
0C
0D
#7260000
1!
16
1C
1D
0Z
1Y
0d
1e
1F
1?
0@
0*
1)
#7280000
0!
06
0C
0D
#7300000
1!
16
1C
1D
1Z
0e
0F
0I
0J
0K
1M
1Q
0]
1@
1*
#7320000
0!
06
0C
0D
#7340000
1!
16
1C
1D
0Z
0Y
0X
0W
0V
1U
0`
1a
1b
1c
1d
1e
1F
0M
0Q
1L
1]
1;
0<
0=
0>
0?
0@
0*
0)
0(
0'
0&
1%
#7360000
0!
06
0C
0D
#7380000
1!
16
1C
1D
1Z
0e
0F
1I
1@
1*
#7400000
0!
06
0C
0D
#7420000
1!
16
1C
1D
0Z
1Y
0d
1e
1F
1?
0@
0*
1)
#7440000
0!
06
0C
0D
#7460000
1!
16
1C
1D
1Z
0e
0F
0I
1J
1@
1*
#7480000
0!
06
0C
0D
#7500000
1!
16
1C
1D
0Z
0Y
1X
0c
1d
1e
1F
1>
0?
0@
0*
0)
1(
#7520000
0!
06
0C
0D
#7540000
1!
16
1C
1D
1Z
0e
0F
1I
1@
1*
#7560000
0!
06
0C
0D
#7580000
1!
16
1C
1D
0Z
1Y
0d
1e
1F
1?
0@
0*
1)
#7600000
0!
06
0C
0D
#7620000
1!
16
1C
1D
1Z
0e
0F
0I
0J
1K
1@
1*
#7640000
0!
06
0C
0D
#7660000
1!
16
1C
1D
0Z
0Y
0X
1W
0b
1c
1d
1e
1F
1=
0>
0?
0@
0*
0)
0(
1'
#7680000
0!
06
0C
0D
#7700000
1!
16
1C
1D
1Z
0e
0F
1I
1@
1*
#7720000
0!
06
0C
0D
#7740000
1!
16
1C
1D
0Z
1Y
0d
1e
1F
1?
0@
0*
1)
#7760000
0!
06
0C
0D
#7780000
1!
16
1C
1D
1Z
0e
0F
0I
1J
1@
1*
#7800000
0!
06
0C
0D
#7820000
1!
16
1C
1D
0Z
0Y
1X
0c
1d
1e
1F
1>
0?
0@
0*
0)
1(
#7840000
0!
06
0C
0D
#7860000
1!
16
1C
1D
1Z
0e
0F
1I
1@
1*
#7880000
0!
06
0C
0D
#7900000
1!
16
1C
1D
0Z
1Y
0d
1e
1F
1?
0@
0*
1)
#7920000
0!
06
0C
0D
#7940000
1!
16
1C
1D
1Z
0e
0F
0I
0J
0K
1M
1Q
0]
1@
1*
#7960000
0!
06
0C
0D
#7980000
1!
16
1C
1D
0Z
0Y
0X
0W
1V
0a
1b
1c
1d
1e
1F
0M
0Q
0L
0N
1O
1]
1<
0=
0>
0?
0@
0*
0)
0(
0'
1&
#8000000
0!
06
0C
0D
#8020000
1!
16
1C
1D
1Z
0e
0F
1I
1@
1*
#8040000
0!
06
0C
0D
#8060000
1!
16
1C
1D
0Z
1Y
0d
1e
1F
1?
0@
0*
1)
#8080000
0!
06
0C
0D
#8100000
1!
16
1C
1D
1Z
0e
0F
0I
1J
1@
1*
#8120000
0!
06
0C
0D
#8140000
1!
16
1C
1D
0Z
0Y
1X
0c
1d
1e
1F
1>
0?
0@
0*
0)
1(
#8160000
0!
06
0C
0D
#8180000
1!
16
1C
1D
1Z
0e
0F
1I
1@
1*
#8200000
0!
06
0C
0D
#8220000
1!
16
1C
1D
0Z
1Y
0d
1e
1F
1?
0@
0*
1)
#8240000
0!
06
0C
0D
