EXP1/Contador74163/simulation/qsim/Contador74163.msim.vcd
$comment
	File created using the following command:
		vcd file Contador74163.msim.vcd -direction
$end
$date
	Thu Jan  9 20:43:59 2020
$end
$version
	ModelSim Version 10.5b
$end
$timescale
	1ps
$end

$scope module Contador74163_vlg_vec_tst $end
$var reg 1 ! a $end
$var reg 1 " b $end
$var reg 1 # c $end
$var reg 1 $ clock $end
$var reg 1 % clr $end
$var reg 1 & d $end
$var reg 1 ' enp $end
$var reg 1 ( ent $end
$var reg 1 ) ld $end
$var wire 1 * qa $end
$var wire 1 + qb $end
$var wire 1 , qc $end
$var wire 1 - qd $end
$var wire 1 . rco $end

$scope module i1 $end
$var wire 1 / gnd $end
$var wire 1 0 vcc $end
$var wire 1 1 unknown $end
$var tri1 1 2 devclrn $end
$var tri1 1 3 devpor $end
$var tri1 1 4 devoe $end
$var wire 1 5 ~QUARTUS_CREATED_GND~I_combout $end
$var wire 1 6 clock~input_o $end
$var wire 1 7 clock~inputCLKENA0_outclk $end
$var wire 1 8 ent~input_o $end
$var wire 1 9 enp~input_o $end
$var wire 1 : inst|sub|105~0_combout $end
$var wire 1 ; ld~input_o $end
$var wire 1 < b~input_o $end
$var wire 1 = clr~input_o $end
$var wire 1 > a~input_o $end
$var wire 1 ? inst|sub|68~0_combout $end
$var wire 1 @ inst|sub|34~q $end
$var wire 1 A inst|sub|115~0_combout $end
$var wire 1 B inst|sub|111~q $end
$var wire 1 C c~input_o $end
$var wire 1 D inst|sub|126~0_combout $end
$var wire 1 E inst|sub|122~q $end
$var wire 1 F d~input_o $end
$var wire 1 G inst|sub|130~0_combout $end
$var wire 1 H inst|sub|137~0_combout $end
$var wire 1 I inst|sub|134~q $end
$var wire 1 J inst|sub|128~0_combout $end
$upscope $end
$upscope $end
$enddefinitions $end
#0
$dumpvars
0!
0"
0#
1$
1%
0&
0'
0(
1)
0*
0+
0,
0-
0.
0/
10
x1
12
13
14
05
16
17
08
09
0:
1;
0<
1=
0>
0?
0@
0A
0B
0C
0D
0E
0F
0G
0H
0I
0J
$end
#20000
0$
06
07
#40000
1$
16
17
#60000
0$
06
07
#80000
1$
16
17
#100000
0%
0$
0=
06
07
#120000
1$
16
17
#140000
0$
06
07
#160000
1$
16
17
#180000
1%
0$
1=
06
07
#200000
1'
1(
1$
19
18
16
17
1:
1?
#220000
0$
06
07
#240000
1$
16
17
1@
1*
1A
0?
#260000
0$
06
07
#280000
1$
16
17
1B
0@
0*
1+
1?
#300000
0$
06
07
#320000
1$
16
17
1@
1*
1D
0A
0?
#340000
0$
06
07
#360000
1$
16
17
1E
0B
0@
0*
0+
1,
1?
#380000
0'
0(
0$
09
08
06
07
0:
0?
#400000
1&
1"
1!
1$
1F
1<
1>
16
17
#420000
0)
0$
0;
06
07
1H
0D
1A
1?
#440000
1$
16
17
1I
0E
1B
1@
1*
1+
0,
1-
#460000
1)
0$
1;
06
07
#480000
0&
0"
0!
1$
0F
0<
0>
16
17
#500000
1'
1(
0$
19
18
06
07
1:
0?
1D
0A
#520000
1$
16
17
1E
0B
0@
0*
0+
1,
1?
#540000
0$
06
07
#560000
1$
16
17
1@
1*
1A
0?
#580000
0$
06
07
#600000
1$
16
17
1B
0@
0*
1+
1?
#620000
0$
06
07
#640000
0'
1$
09
16
17
0:
0?
1@
1*
1J
1?
1.
#660000
0$
06
07
#680000
1$
16
17
#700000
0$
06
07
#720000
0(
1'
1$
08
19
16
17
0J
0.
#740000
0$
06
07
#760000
1$
16
17
#780000
0$
06
07
#800000
1(
1$
18
16
17
1G
1:
1J
0?
1.
0D
0A
0H
#820000
0$
06
07
#840000
1$
16
17
0I
0E
0B
0@
0*
0+
0,
0-
0G
0J
1?
1H
0.
0H
#860000
0$
06
07
#880000
0%
0)
1$
0=
0;
16
17
0?
1@
1*
#900000
0$
06
07
#920000
1&
1!
1%
1$
1F
1>
1=
16
17
1H
1?
0@
0*
#940000
0$
06
07
#960000
1)
0&
0!
1$
1;
0F
0>
16
17
0H
1I
1@
1*
1-
1A
0?
1H
#980000
0$
06
07
#1000000
1$
16
17
1B
0@
0*
1+
1?
#1020000
0$
06
07
#1040000
1$
16
17
1@
1*
1D
0A
0?
#1060000
0$
06
07
#1080000
1$
16
17
1E
0B
0@
0*
0+
1,
1?
#1100000
0$
06
07
#1120000
1$
16
17
1@
1*
1A
0?
#1140000
0$
06
07
#1160000
1$
16
17
1B
0@
0*
1+
1?
#1180000
0$
06
07
#1200000
1$
16
17
1@
1*
1G
1J
0D
0A
0?
1.
0H
#1220000
0%
0)
0$
0=
0;
06
07
#1240000
1$
16
17
0I
0E
0B
0@
0*
0+
0,
0-
0G
0J
0.
#1260000
0$
06
07
#1280000
1"
1%
1$
1<
1=
16
17
1A
#1300000
0'
0(
0$
09
08
06
07
0:
#1320000
1&
1$
1F
16
17
1H
1B
1+
#1340000
0$
06
07
#1360000
1$
16
17
1I
1-
#1380000
1#
1!
1)
1'
1(
0$
1C
1>
1;
19
18
06
07
1:
1?
#1400000
0"
0&
0#
0!
1$
0<
0F
0C
0>
16
17
1@
1*
1D
0A
0?
#1420000
0$
06
07
#1440000
1$
16
17
1E
0B
0@
0*
0+
1,
1?
#1460000
0$
06
07
#1480000
1$
16
17
1@
1*
1A
0?
#1500000
0$
06
07
#1520000
1$
16
17
1B
0@
0*
1+
1?
#1540000
0$
06
07
#1560000
1$
16
17
1@
1*
1G
1J
0D
0A
0?
1.
0H
#1580000
0$
06
07
#1600000
1$
16
17
0I
0E
0B
0@
0*
0+
0,
0-
0G
0J
1?
1H
0.
0H
#1620000
0$
06
07
#1640000
0)
1&
1$
0;
1F
16
17
1H
0?
1@
1*
#1660000
1)
0&
0$
1;
0F
06
07
0H
1A
#1680000
1$
16
17
1B
0@
0*
1+
1?
#1700000
0$
06
07
#1720000
1"
1#
0)
1$
1<
1C
0;
16
17
1D
0?
1@
1*
#1740000
0$
06
07
#1760000
0"
0#
1)
1$
0<
0C
1;
16
17
0A
1E
0@
0*
1,
1A
1?
#1780000
0$
06
07
#1800000
1$
16
17
1@
1*
1G
0D
0A
0?
1H
#1820000
0$
06
07
#1840000
1$
16
17
1I
0E
0B
0@
0*
0+
0,
1-
0G
1?
0H
1H
#1860000
0$
06
07
#1880000
1$
16
17
1@
1*
1A
0?
#1900000
0$
06
07
#1920000
1$
16
17
1B
0@
0*
1+
1?
#1940000
0$
06
07
#1960000
1$
16
17
1@
1*
1D
0A
0?
#1980000
1!
1&
1#
0)
0$
1>
1F
1C
0;
06
07
1?
#2000000
1$
16
17
1E
0B
0+
1,
#2020000
0$
06
07
#2040000
1$
16
17
#2060000
0!
0&
0#
1)
0$
0>
0F
0C
1;
06
07
1A
0?
#2080000
1$
16
17
1B
0@
0*
1+
1?
#2100000
0$
06
07
#2120000
1$
16
17
1@
1*
1G
1J
0D
0A
0?
1.
0H
#2140000
0$
06
07
#2160000
1$
16
17
0I
0E
0B
0@
0*
0+
0,
0-
0G
0J
1?
1H
0.
0H
#2180000
0$
06
07
#2200000
1$
16
17
1@
1*
1A
0?
#2220000
0$
06
07
#2240000
1$
16
17
1B
0@
0*
1+
1?
#2260000
0$
06
07
#2280000
1$
16
17
1@
1*
1D
0A
0?
#2300000
0$
06
07
#2320000
1$
16
17
1E
0B
0@
0*
0+
1,
1?
#2340000
0$
06
07
#2360000
1$
16
17
1@
1*
1A
0?
#2380000
0$
06
07
#2400000
1$
16
17
1B
0@
0*
1+
1?
#2420000
0$
06
07
#2440000
0'
0(
1$
09
08
16
17
0:
0?
1@
1*
1?
#2460000
0$
06
07
#2480000
1$
16
17
#2500000
0$
06
07
#2520000
1$
16
17
#2540000
0$
06
07
#2560000
1$
16
17
#2580000
0$
06
07
#2600000
1$
16
17
#2620000
0$
06
07
#2640000
1$
16
17
#2660000
0$
06
07
#2680000
1$
16
17
#2700000
0$
06
07
#2720000
1$
16
17
#2740000
0$
06
07
#2760000
1$
16
17
#2780000
0$
06
07
