EXP1/Teste/simulation/qsim/Teste.msim.vcd
$comment
	File created using the following command:
		vcd file Teste.msim.vcd -direction
$end
$date
	Thu Jan  9 19:47:35 2020
$end
$version
	ModelSim Version 10.5b
$end
$timescale
	1ps
$end

$scope module Teste_vlg_vec_tst $end
$var reg 1 ! A $end
$var reg 1 " B $end
$var reg 1 # C $end
$var wire 1 $ Y $end

$scope module i1 $end
$var wire 1 % gnd $end
$var wire 1 & vcc $end
$var wire 1 ' unknown $end
$var tri1 1 ( devclrn $end
$var tri1 1 ) devpor $end
$var tri1 1 * devoe $end
$var wire 1 + ~QUARTUS_CREATED_GND~I_combout $end
$var wire 1 , C~input_o $end
$var wire 1 - B~input_o $end
$var wire 1 . A~input_o $end
$var wire 1 / inst2~combout $end
$upscope $end
$upscope $end
$enddefinitions $end
#0
$dumpvars
0!
0"
0#
0$
0%
1&
x'
1(
1)
1*
0+
0,
0-
0.
0/
$end
#10000
1#
1,
1/
1$
#20000
1"
0#
1-
0,
0/
0$
#30000
1#
1,
#40000
1!
0"
0#
1.
0-
0,
#50000
1#
1,
#60000
1"
0#
1-
0,
1/
1$
#70000
1#
1,
0/
0$
#80000
0!
0"
0#
0.
0-
0,
