EXP2/Files/contador_163_restored/simulation/qsim/contador_163.msim.vcd
$comment
	File created using the following command:
		vcd file contador_163.msim.vcd -direction
$end
$date
	Wed Jan 15 09:35:23 2020
$end
$version
	ModelSim Version 10.5b
$end
$timescale
	1ps
$end

$scope module contador_163_vlg_vec_tst $end
$var reg 1 ! clock $end
$var reg 1 " clr $end
$var reg 4 # D [3:0] $end
$var reg 1 $ enp $end
$var reg 1 % ent $end
$var reg 1 & ld $end
$var wire 1 ' Q [3] $end
$var wire 1 ( Q [2] $end
$var wire 1 ) Q [1] $end
$var wire 1 * Q [0] $end
$var wire 1 + rco $end

$scope module i1 $end
$var wire 1 , gnd $end
$var wire 1 - vcc $end
$var wire 1 . unknown $end
$var tri1 1 / devclrn $end
$var tri1 1 0 devpor $end
$var tri1 1 1 devoe $end
$var wire 1 2 ~QUARTUS_CREATED_GND~I_combout $end
$var wire 1 3 clock~input_o $end
$var wire 1 4 clock~inputCLKENA0_outclk $end
$var wire 1 5 ld~input_o $end
$var wire 1 6 D[0]~input_o $end
$var wire 1 7 clr~input_o $end
$var wire 1 8 IQ~0_combout $end
$var wire 1 9 ent~input_o $end
$var wire 1 : enp~input_o $end
$var wire 1 ; IQ[0]~1_combout $end
$var wire 1 < D[1]~input_o $end
$var wire 1 = IQ~2_combout $end
$var wire 1 > D[2]~input_o $end
$var wire 1 ? IQ~3_combout $end
$var wire 1 @ D[3]~input_o $end
$var wire 1 A IQ~4_combout $end
$var wire 1 B process_0~0_combout $end
$var wire 1 C IQ [3] $end
$var wire 1 D IQ [2] $end
$var wire 1 E IQ [1] $end
$var wire 1 F IQ [0] $end
$upscope $end
$upscope $end
$enddefinitions $end
#0
$dumpvars
1!
1"
b0 #
0$
0%
1&
0*
0)
0(
0'
0+
0,
1-
x.
1/
10
11
02
13
14
15
06
17
18
09
0:
0;
0<
0=
0>
0?
0@
0A
0B
0F
0E
0D
0C
$end
#5000
0!
03
04
#10000
1!
13
14
#15000
0!
03
04
#20000
1!
13
14
#25000
0!
03
04
#30000
1!
13
14
#35000
0!
03
04
#40000
1!
13
14
#45000
0!
03
04
#50000
1!
13
14
#55000
0!
03
04
#60000
0"
1!
07
13
14
1;
08
#65000
0!
03
04
#70000
1$
1%
1!
1:
19
13
14
#75000
0!
03
04
#80000
1!
13
14
#85000
0!
03
04
#90000
1"
1!
17
13
14
18
#95000
0!
03
04
#100000
1!
13
14
1F
1*
1=
08
#105000
0!
03
04
#110000
1!
13
14
1E
0F
0*
1)
18
#115000
0!
03
04
#120000
1!
13
14
1F
1*
1?
0=
08
#125000
0!
03
04
#130000
1!
13
14
1D
0E
0F
0*
0)
1(
18
#135000
0!
03
04
#140000
1!
13
14
1F
1*
1=
08
#145000
0!
03
04
#150000
1!
13
14
1E
0F
0*
1)
18
#155000
0!
03
04
#160000
0$
0%
1!
0:
09
13
14
0;
1F
1*
1A
0?
0=
08
#165000
0!
03
04
#170000
b1000 #
b1010 #
b1011 #
1!
16
1<
1@
13
14
#175000
0!
03
04
#180000
0&
1!
05
13
14
1;
1=
18
#185000
0!
03
04
#190000
1!
13
14
1C
0D
0(
1'
#195000
0!
03
04
#200000
1&
1!
15
13
14
0;
1?
0=
08
#205000
0!
03
04
#210000
b11 #
b1 #
b0 #
1!
06
0<
0@
13
14
#215000
0!
03
04
#220000
1$
1%
1!
1:
19
13
14
1;
#225000
0!
03
04
#230000
1!
13
14
1D
0E
0F
0*
0)
1(
18
#235000
0!
03
04
#240000
1!
13
14
1F
1*
1=
08
#245000
0!
03
04
#250000
1!
13
14
1E
0F
0*
1)
18
#255000
0!
03
04
#260000
1!
13
14
1F
1*
1B
0A
0?
0=
08
1+
#265000
0!
03
04
#270000
1!
13
14
0C
0D
0E
0F
0*
0)
0(
0'
0B
18
0+
#275000
0!
03
04
#280000
1!
13
14
1F
1*
1=
08
#285000
0!
03
04
#290000
1!
13
14
1E
0F
0*
1)
18
#295000
0!
03
04
#300000
0$
1!
0:
13
14
0;
1F
1*
1?
0=
08
#305000
0!
03
04
#310000
1!
13
14
#315000
0!
03
04
#320000
1!
13
14
#325000
0!
03
04
#330000
1!
13
14
#335000
0!
03
04
#340000
0%
1$
1!
09
1:
13
14
#345000
0!
03
04
#350000
1!
13
14
#355000
0!
03
04
#360000
1!
13
14
#365000
0!
03
04
#370000
1!
13
14
#375000
0!
03
04
#380000
1%
1!
19
13
14
1;
#385000
0!
03
04
#390000
1!
13
14
1D
0E
0F
0*
0)
1(
18
#395000
0!
03
04
#400000
1!
13
14
1F
1*
1=
08
#405000
0!
03
04
#410000
1!
13
14
1E
0F
0*
1)
18
#415000
0!
03
04
#420000
0"
0&
1!
07
05
13
14
0?
0=
08
1F
1*
#425000
0!
03
04
#430000
1!
13
14
0D
0E
0F
0*
0)
0(
#435000
0!
03
04
#440000
b1000 #
b1001 #
1"
1!
16
1@
17
13
14
1A
18
#445000
0!
03
04
#450000
1!
13
14
1C
1F
1*
1'
#455000
0!
03
04
#460000
1&
b1 #
b0 #
1!
15
06
0@
13
14
08
1=
#465000
0!
03
04
#470000
1!
13
14
1E
0F
0*
1)
18
#475000
0!
03
04
#480000
1!
13
14
1F
1*
1?
0=
08
#485000
0!
03
04
#490000
1!
13
14
1D
0E
0F
0*
0)
1(
18
#495000
0!
03
04
#500000
1!
13
14
1F
1*
1=
08
#505000
0!
03
04
#510000
1!
13
14
1E
0F
0*
1)
18
#515000
0!
03
04
#520000
1!
13
14
1F
1*
1B
0A
0?
0=
08
1+
#525000
0!
03
04
#530000
1!
13
14
0C
0D
0E
0F
0*
0)
0(
0'
0B
18
0+
#535000
0!
03
04
#540000
1!
13
14
1F
1*
1=
08
#545000
0!
03
04
#550000
1!
13
14
1E
0F
0*
1)
18
#555000
0!
03
04
#560000
1!
13
14
1F
1*
1?
0=
08
#565000
0!
03
04
#570000
1!
13
14
1D
0E
0F
0*
0)
1(
18
#575000
0!
03
04
#580000
0$
0%
1!
0:
09
13
14
0;
1F
1*
1=
08
#585000
0!
03
04
#590000
1!
13
14
#595000
0!
03
04
#600000
1!
13
14
#605000
0!
03
04
#610000
1!
13
14
#615000
0!
03
04
